<svg width="58" height="22" viewBox="0 0 58 22" fill="none" xmlns="http://www.w3.org/2000/svg">
<path fill-rule="evenodd" clip-rule="evenodd" d="M15 22C21.0751 22 26 17.0751 26 11V7C26 5.34315 27.3431 4 29 4C30.6569 4 32 5.34315 32 7V11C32 17.0751 36.9249 22 43 22C49.0751 22 54 17.0751 54 11H58V8H53.5859C52.2801 3.38299 48.0351 0 43 0C39.4761 0 36.3392 1.65704 34.326 4.23443C33.326 2.31254 31.3163 1 29 1C26.6837 1 24.674 2.31254 23.674 4.23443C21.6608 1.65704 18.5239 0 15 0C9.96489 0 5.71992 3.38299 4.41406 8H0V11H4C4 17.0751 8.92487 22 15 22ZM51 11C51 6.58172 47.4183 3 43 3C38.5817 3 35 6.58172 35 11C35 15.4183 38.5817 19 43 19C47.4183 19 51 15.4183 51 11ZM15 3C10.5817 3 7 6.58172 7 11C7 15.4183 10.5817 19 15 19C19.4183 19 23 15.4183 23 11C23 6.58172 19.4183 3 15 3Z" fill="black"/>
</svg>
